Evictions analysis 6-16-2020
…
x$plaintiff <- gsub("SG RECEIVER LLC COURT APPT RECEIVER", "SG RECEIVER LLC", x$plaintiff)

 Summary of Plaintiffs 

#Build a simple summary table
plaintiff1 <- x %>% 
  select(plaintiff, defendant, date) %>% 
         group_by(plaintiff) %>% 
         count(plaintiff) %>% 
         ungroup() %>% 
         arrange(desc(n))
plaintiff1

## # A tibble: 275 x 2
##    plaintiff                          n
##    <chr>                          <int>
##  1 SG RECEIVER LLC                   33
##  2 MILLS CITYVIEW LLC                14
##  3 SMART RENTALS LLC                  8
##  4 FOX GROVE MANAGEMENT LLC           7
##  5 DECA REALTY CO                     6
##  6 MCCORMACK BARON MGT INC            6
##  7 ROOTED STL LLC                     6
##  8 SANSONE GROUP LLC                  6
##  9 KOHNER PROPERTIES INC              5
## 10 MCCORMACK BARON MANAGEMENT INC     5
## #  with 265 more rows
…
## [1] 435

 Summary of Defendants 

defendants <- x %>% 
  select(plaintiff, defendant, date) %>% 
         group_by(defendant) %>% 
         count(defendant) %>% 
         ungroup() %>% 
         arrange(desc(n))
defendants

## # A tibble: 432 x 2
##    defendant                   n
##    <chr>                   <int>
##  1 <NA>                        4
##  2 5654 DELMAR LLC             1
##  3 ADAM T HARRINGTON ET AL     1
##  4 ADRIAN R SIMMONS            1
##  5 AERIAL PATES                1
##  6 AL'LENA RUSSEL ET AL        1
##  7 ALAN SHANKLIN               1
##  8 ALBERT D HUNT               1
##  9 ALBERT THREAT ET AL         1
## 10 ALEXANDRA FROWNFELTER       1
## #  with 422 more rows

 Total By Zip Code

zip <- x %>% 
  select(plaintiff, defendant_zip, date) %>% 
         group_by(defendant_zip) %>% 
         count(defendant_zip) %>% 
         ungroup() %>% 
         arrange(desc(n))

write.csv(zip, "stlouis2020_eviction_defendant_zip.csv")
zip

## # A tibble: 35 x 2
##    defendant_zip     n
##    <chr>         <int>
##  1 63111            66
##  2 63112            35
##  3 63116            35
##  4 63118            32
##  5 63106            31
##  6 63103            25
##  7 63115            24
##  8 63108            20
##  9 63110            20
## 10 63104            17
## #  with 25 more rows

Addresses

address <- x %>% 
  select(defendant_address, date) %>% 
         group_by(defendant_address) %>% 
         count(defendant_address) %>% 
         ungroup() %>% 
         arrange(desc(n))

write.csv(address, "stlouis2020_eviction_defendant_zip.csv")

address

## # A tibble: 434 x 2
##    defendant_address                  n
##    <chr>                          <int>
##  1 5834 VICTORIA AVE                  2
##  2 1000 WASHINGTON AVE., APT. 706     1
##  3 1000 WASHINGTON AVE., APT. 716     1
##  4 1000 WASHINGTON AVE., APT. 726     1
##  5 1013 N 11TH ST, F                  1
##  6 1015 COLE ST, A                    1
##  7 1022 HICKORY POINT                 1
##  8 1022 N. 19TH STREET                1
##  9 1023 SPRUCE STREET APT 203         1
## 10 1023 SPRUCE STREET APT. 219        1
## #  with 424 more rows
…
q$plaintiff <- str_trim(q$plaintiff)
#x$plaintiff <- gsub("[[:punct:]]", "", x$plaintiff)
#x$plaintiff <- gsub(" ", "_", x$plaintiff)

#Build a simple summary table
plaintiff2 <- q %>% 
  select(plaintiff, defendant, date) %>% 
         group_by(plaintiff) %>% 
         count(plaintiff) %>% 
         ungroup() %>% 
         arrange(desc(n))
plaintiff2

## # A tibble: 141 x 2
##    plaintiff                         n
##    <chr>                         <int>
##  1 "MILLS CITYVIEW LLC"              6
##  2 "MCCORMACK BARON MGT INC"         5
##  3 "RENTERS RESOURCE LLC"            5
##  4 ""                                4
##  5 "MERCHANDISE MART EQUITY LLC"     3
##  6 "MOGUL PROPERTY MANAGEMENT"       3
##  7 "REDZO KALENDER"                  3
##  8 "BBW HOMES L L C"                 2
##  9 "BETTY ELDER"                     2
## 10 "DECA REALTY CO"                  2
## #  with 131 more rows

 Summary of Defendants 

defendant2 <- q %>% 
  select(plaintiff, defendant, date) %>% 
         group_by(defendant) %>% 
         count(defendant) %>% 
         ungroup() %>% 
         arrange(desc(n))
defendant2

## # A tibble: 173 x 2
##    defendant                 n
##    <chr>                 <int>
##  1 <NA>                      6
##  2 ABDULRAHAN M BAKHSH       1
##  3 ADAM TENNIS               1
##  4 ADRAIN MCCLAIN            1
##  5 ALETHEA SMOOTHS           1
##  6 ALEXANDER CRAFTON         1
##  7 ALYSHA GREGORY            1
##  8 AMY WRIGHT                1
##  9 ANGELIQUE JONES ET AL     1
## 10 ANNA BROWN                1
## #  with 163 more rows
…
