Milwaukee County and City Evictions Analysis
…
Parse Cities 

milw$defendant_address2 <- milw$defendant_address

x <- separate(data = milw, col = defendant_address, into = c("address", "city", "state_zip"), sep = ", ", extra = "merge", fill = "right")

x %>% 
  group_by(city) %>%
  count(city) %>% 
  arrange(desc(n))

## # A tibble: 991 x 2
## # Groups:   city [991]
##    city                n
##    <chr>           <int>
##  1 milwaukee       14827
##  2 <NA>              545
##  3 west allis        318
##  4 cudahy            108
##  5 south milwaukee    91
##  6 greenfield         82
##  7 #2                 66
##  8 lower              66
##  9 #4                 64
## 10 oak creek          64
## #  with 981 more rows
…
Summary of Milwaukee Plaintiffs 

#Build a simple summary table
plaintiff1 <- p %>% 
  select(plaintiff_one, defendant_one, date) %>% 
         group_by(plaintiff_one) %>% 
         count(plaintiff_one) %>% 
         ungroup() %>% 
         arrange(desc(n))

write.csv(plaintiff1, "milplaintiff.7.6.2020.csv")

plaintiff1

## # A tibble: 5,808 x 2
##    plaintiff_one                                  n
##    <chr>                                      <int>
##  1 berrada properties  llc                     1209
##  2 metropolitan associates                      323
##  3 falcon crest llc                             198
##  4 s real estate                                162
##  5 city of milwaukee                            156
##  6 housing authority of the city of milwaukee   144
##  7 guardian investment real estate company      124
##  8 bruckner daniel w                            111
##  9 mariners pointe apartments llc               101
## 10 meaux park llc                                98
## #  with 5,798 more rows
…
Context: Berrada properties and its 18 affiliates were responsible for 2,230 eviction filings in Milwaukee City and County, or at least 11% of all 19,420 eviction filings since January 2019. Anchor Properties and its affiliates accounted for 3% of filings.

#Summary of Cleaned Milwaukee Plaintiffs
plaintiff2 <- p2 %>% 
  select(plaintiff_fixed, date) %>% 
         group_by(plaintiff_fixed) %>% 
         count(plaintiff_fixed) %>% 
         ungroup() %>% 
         arrange(desc(n))

write.csv(plaintiff2, "milplaintiff.cleaned.8.4.2020.csv")

plaintiff2

## # A tibble: 5,777 x 2
##    plaintiff_fixed                               n
##    <chr>                                     <int>
##  1 "berrada"                                  2230
##  2 "anchor_properties"                         595
##  3 "metropolitan associates"                   323
##  4 "s real estate"                             162
##  5 "milwaukee_city"                            156
##  6 "milwaukee_city_housing_authority"          144
##  7 "guardian investment real estate company"   124
##  8 "daniel_w_bruckner"                         111
##  9 "gregory_w_nawrocki"                        105
## 10 " highland llc"                              90
## #  with 5,767 more rows
Context: Berrada was responsible for 17% of eviction filings in Milwaukee City and County since March 27, 2020. Since the moratorium started in March 27, 2020, there have been 2,929 evictions. Berrada and its 18 affiliated entities had 484 eviction filings, or 17% of the total. Anchor and its affiliates were responsible for 4% of eviction filings.

#Cleaned Milwaukee Plaintiffs since March 27 2020
top2 <- p2 %>% 
  filter(date > '2020-03-27') %>% 
  select(plaintiff_fixed, yearmon) %>% 
         group_by(plaintiff_fixed) %>% 
         count(plaintiff_fixed) %>% 
         filter(n > 5) %>% 
         ungroup() %>% 
         arrange(desc(n))
write.csv(top2, "cleaned_mil_evictors_since_March27_8_5_2020.csv")
top2

## # A tibble: 53 x 2
##    plaintiff_fixed                               n
##    <chr>                                     <int>
##  1 "berrada"                                   484
##  2 "anchor_properties"                         119
##  3 "s real estate"                              54
##  4 "gregory_w_nawrocki"                         30
##  5 "daniel_w_bruckner"                          26
##  6 " highland llc"                              25
##  7 "guardian investment real estate company"    24
##  8 "metropolitan associates"                    19
##  9 "milwaukee_capital_properties"               17
## 10 "scv ventures  llc"                          17
## #  with 43 more rows
…
